\relax 
\providecommand\hyper@newdestlabel[2]{}
\providecommand\HyperFirstAtBeginDocument{\AtBeginDocument}
\HyperFirstAtBeginDocument{\ifx\hyper@anchor\@undefined
\global\let\oldcontentsline\contentsline
\gdef\contentsline#1#2#3#4{\oldcontentsline{#1}{#2}{#3}}
\global\let\oldnewlabel\newlabel
\gdef\newlabel#1#2{\newlabelxx{#1}#2}
\gdef\newlabelxx#1#2#3#4#5#6{\oldnewlabel{#1}{{#2}{#3}}}
\AtEndDocument{\ifx\hyper@anchor\@undefined
\let\contentsline\oldcontentsline
\let\newlabel\oldnewlabel
\fi}
\fi}
\global\let\hyper@last\relax 
\gdef\HyperFirstAtBeginDocument#1{#1}
\providecommand\HyField@AuxAddToFields[1]{}
\providecommand\HyField@AuxAddToCoFields[2]{}
\bibstyle{elsarticle-num}
\emailauthor{vassilios.yfantis@tu-dortmund.de}{Vassilios Yfantis}
\Newlabel{mycorrespondingauthor}{1}
\Newlabel{mymainaddress}{a}
\Newlabel{mysecondaryaddress1}{b}
\Newlabel{mysecondaryaddress2}{c}
\@LN@col{1}
\@writefile{toc}{\contentsline {section}{\numberline {1}Introduction}{1}{section.1}\protected@file@percent }
\@writefile{toc}{\contentsline {section}{\numberline {2}Modelling and Solution of Scheduling Problems}{1}{section.2}\protected@file@percent }
\@writefile{toc}{\contentsline {subsection}{\numberline {2.1}Exact Approaches}{1}{subsection.2.1}\protected@file@percent }
\@writefile{toc}{\contentsline {subsection}{\numberline {2.2}Heuristic and Metaheuristic Approaches}{1}{subsection.2.2}\protected@file@percent }
\@writefile{toc}{\contentsline {subsection}{\numberline {2.3}Hybrid Approaches}{1}{subsection.2.3}\protected@file@percent }
\@writefile{toc}{\contentsline {section}{\numberline {3}Flexible Consumer Goods Production Plant}{1}{section.3}\protected@file@percent }
\@writefile{toc}{\contentsline {subsection}{\numberline {3.1}Current Layout}{1}{subsection.3.1}\protected@file@percent }
\@LN@col{2}
\@writefile{lof}{\contentsline {figure}{\numberline {1}{\ignorespaces Current layout of the consumer-goods production plant with several lines in parallel.}}{1}{figure.1}\protected@file@percent }
\newlabel{fig:currentlayout}{{1}{1}{Current layout of the consumer-goods production plant with several lines in parallel}{figure.1}{}}
\@LN@col{1}
\@writefile{lof}{\contentsline {figure}{\numberline {2}{\ignorespaces Flexible layout of the consumer-goods production plant with decoupled production stages and intermediate buffer.}}{2}{figure.2}\protected@file@percent }
\newlabel{fig:agilelayout}{{2}{2}{Flexible layout of the consumer-goods production plant with decoupled production stages and intermediate buffer}{figure.2}{}}
\@writefile{toc}{\contentsline {subsection}{\numberline {3.2}Flexible Layout}{2}{subsection.3.2}\protected@file@percent }
\@LN@col{2}
\@writefile{toc}{\contentsline {section}{\numberline {4}Mathematical Programming-based Solution}{2}{section.4}\protected@file@percent }
\@writefile{toc}{\contentsline {subsection}{\numberline {4.1}General Framework}{2}{subsection.4.1}\protected@file@percent }
\newlabel{CP}{{{CP}}{2}{General Framework}{subsection.4.1}{}}
\newlabel{Variable}{{1}{2}{General Framework}{equation.4.1}{}}
\newlabel{Obj}{{2}{2}{General Framework}{equation.4.2}{}}
\newlabel{Constr1}{{3}{2}{General Framework}{equation.4.3}{}}
\newlabel{Constr2}{{4}{2}{General Framework}{equation.4.4}{}}
\newlabel{Separable}{{5}{2}{General Framework}{equation.4.5}{}}
\@LN@col{1}
\newlabel{Sub1}{{{Sub1 $ k $}}{3}{General Framework}{equation.4.5}{}}
\newlabel{Sub2}{{{Sub2 $ k $}}{3}{General Framework}{equation.4.5}{}}
\newlabel{Feasibility1}{{6}{3}{General Framework}{equation.4.6}{}}
\@LN@col{2}
\newlabel{Feasibility2}{{7}{3}{General Framework}{equation.4.7}{}}
\newlabel{key}{{8}{3}{General Framework}{equation.4.8}{}}
\@writefile{toc}{\contentsline {subsection}{\numberline {4.2}Discrete Time MILP Scheduling Model}{3}{subsection.4.2}\protected@file@percent }
\@LN@col{1}
\@writefile{lof}{\contentsline {figure}{\numberline {3}{\ignorespaces Difference between continuous and discrete time approaches.}}{4}{figure.3}\protected@file@percent }
\newlabel{fig:contivsdisc}{{3}{4}{Difference between continuous and discrete time approaches}{figure.3}{}}
\@LN@col{2}
\@writefile{lof}{\contentsline {figure}{\numberline {4}{\ignorespaces Comparison of the two different production possibilities as modeled by Yfantis et. al. (2019).}}{4}{figure.4}\protected@file@percent }
\newlabel{fig:comparison}{{4}{4}{Comparison of the two different production possibilities as modeled by Yfantis et. al. (2019)}{figure.4}{}}
\@writefile{toc}{\contentsline {subsubsection}{\numberline {4.2.1}Individual Order Constraints}{4}{subsubsection.4.2.1}\protected@file@percent }
\newlabel{Alloc1}{{9}{4}{Individual Order Constraints}{equation.4.9}{}}
\@LN@col{1}
\@writefile{lof}{\contentsline {figure}{\numberline {5}{\ignorespaces Case with higher formulation rate, constraint (\ref  {TIme1}) is active.}}{5}{figure.5}\protected@file@percent }
\newlabel{fig:changeove2}{{5}{5}{Case with higher formulation rate, constraint (\ref {TIme1}) is active}{figure.5}{}}
\newlabel{TIme1}{{10}{5}{Individual Order Constraints}{equation.4.10}{}}
\newlabel{Time2}{{11}{5}{Individual Order Constraints}{equation.4.11}{}}
\@LN@col{2}
\@writefile{lof}{\contentsline {figure}{\numberline {6}{\ignorespaces Case with higher packing rate, constraint (\ref  {Time2}) is active.}}{5}{figure.6}\protected@file@percent }
\newlabel{fig:changeove14}{{6}{5}{Case with higher packing rate, constraint (\ref {Time2}) is active}{figure.6}{}}
\newlabel{MatBal1}{{12}{5}{Individual Order Constraints}{equation.4.12}{}}
\newlabel{MatBal2}{{13}{5}{Individual Order Constraints}{equation.4.13}{}}
\newlabel{MatBal4}{{14}{5}{Individual Order Constraints}{equation.4.14}{}}
\@LN@col{1}
\@writefile{lof}{\contentsline {figure}{\numberline {7}{\ignorespaces }}{6}{figure.7}\protected@file@percent }
\newlabel{fig:variables}{{7}{6}{}{figure.7}{}}
\newlabel{obj1}{{15}{6}{Individual Order Constraints}{equation.4.15}{}}
\@writefile{lof}{\contentsline {figure}{\numberline {8}{\ignorespaces Overlapping processing with a higher formulation rate.}}{6}{figure.8}\protected@file@percent }
\newlabel{fig:changeove3}{{8}{6}{Overlapping processing with a higher formulation rate}{figure.8}{}}
\@writefile{lof}{\contentsline {figure}{\numberline {9}{\ignorespaces Overlapping processing with a higher packing rate.}}{6}{figure.9}\protected@file@percent }
\newlabel{fig:changeove5}{{9}{6}{Overlapping processing with a higher packing rate}{figure.9}{}}
\@LN@col{1}
\@writefile{lof}{\contentsline {figure}{\numberline {10}{\ignorespaces Processing without overlaps.}}{7}{figure.10}\protected@file@percent }
\newlabel{fig:changeove1}{{10}{7}{Processing without overlaps}{figure.10}{}}
\@writefile{lof}{\contentsline {figure}{\numberline {11}{\ignorespaces Changeover between orders $ i' $ and $ i $ in unit $ j $.}}{7}{figure.11}\protected@file@percent }
\newlabel{fig:normalchangeover}{{11}{7}{Changeover between orders $ i' $ and $ i $ in unit $ j $}{figure.11}{}}
\@writefile{toc}{\contentsline {subsubsection}{\numberline {4.2.2}Coupling Constraints}{7}{subsubsection.4.2.2}\protected@file@percent }
\newlabel{Alloc2}{{16}{7}{Coupling Constraints}{equation.4.16}{}}
\newlabel{Time3}{{17}{7}{Coupling Constraints}{equation.4.17}{}}
\@LN@col{2}
\newlabel{MatBal5}{{18}{7}{Coupling Constraints}{equation.4.18}{}}
\newlabel{MatBal6}{{19}{7}{Coupling Constraints}{equation.4.19}{}}
\newlabel{InitialTerminal}{{20}{7}{Coupling Constraints}{equation.4.20}{}}
\newlabel{SumFlow}{{21}{7}{Coupling Constraints}{equation.4.21}{}}
\@writefile{toc}{\contentsline {subsubsection}{\numberline {4.2.3}Objective Function}{7}{subsubsection.4.2.3}\protected@file@percent }
\newlabel{Def_Completion}{{22}{7}{Objective Function}{equation.4.22}{}}
\newlabel{Def_Makespan}{{23}{7}{Objective Function}{equation.4.23}{}}
\@LN@col{1}
\@writefile{lof}{\contentsline {figure}{\numberline {12}{\ignorespaces Symmetric solutions with respect to the makespan.}}{8}{figure.12}\protected@file@percent }
\newlabel{fig:symmetricmakespan}{{12}{8}{Symmetric solutions with respect to the makespan}{figure.12}{}}
\newlabel{OrderComp}{{24}{8}{Objective Function}{equation.4.24}{}}
\@LN@col{2}
\@writefile{lof}{\contentsline {figure}{\numberline {13}{\ignorespaces Symmetric solutions with respect to the total completion time.}}{8}{figure.13}\protected@file@percent }
\newlabel{fig:symmetriccompletion}{{13}{8}{Symmetric solutions with respect to the total completion time}{figure.13}{}}
\newlabel{Objective}{{25}{8}{Objective Function}{equation.4.25}{}}
\newlabel{LB}{{26}{8}{Objective Function}{equation.4.26}{}}
\@writefile{toc}{\contentsline {subsection}{\numberline {4.3}Order Decomposition Algorithm}{8}{subsection.4.3}\protected@file@percent }
\@LN@col{1}
\@writefile{lof}{\contentsline {figure}{\numberline {14}{\ignorespaces Infeasible time points for order $ i $ due to processing of order $ i' $.}}{9}{figure.14}\protected@file@percent }
\newlabel{fig:infeasibletime}{{14}{9}{Infeasible time points for order $ i $ due to processing of order $ i' $}{figure.14}{}}
\@writefile{lof}{\contentsline {figure}{\numberline {15}{\ignorespaces }}{9}{figure.15}\protected@file@percent }
\newlabel{fig:2018-12-01gurobin3}{{15}{9}{}{figure.15}{}}
\@writefile{toc}{\contentsline {subsection}{\numberline {4.4}Iterative Scheduling and Feasible Set Reduction}{9}{subsection.4.4}\protected@file@percent }
\@writefile{toc}{\contentsline {section}{\numberline {5}Results}{9}{section.5}\protected@file@percent }
\@writefile{toc}{\contentsline {subsection}{\numberline {5.1}Current Layout}{9}{subsection.5.1}\protected@file@percent }
\@writefile{toc}{\contentsline {subsection}{\numberline {5.2}Flexible Layout}{9}{subsection.5.2}\protected@file@percent }
\@writefile{toc}{\contentsline {subsection}{\numberline {5.3}Comparison of Different Approaches}{9}{subsection.5.3}\protected@file@percent }
\@writefile{toc}{\contentsline {section}{\numberline {6}Conclusion and Outlook}{9}{section.6}\protected@file@percent }
\@LN@col{2}
